<svg width="12" height="12" viewBox="0 0 12 12" fill="none" xmlns="http://www.w3.org/2000/svg">
<path fill-rule="evenodd" clip-rule="evenodd" d="M9.01385 5.00904L6.9926 2.98779L8.4536 1.52604L10.4741 3.54654L9.01385 5.00904ZM3.80978 10.2185L1.57703 10.4218L1.77503 8.20477L5.98778 3.99202L8.00978 6.01402L3.80978 10.2185ZM11.5527 2.50329L11.5519 2.50254L9.49843 0.449037C8.94268 -0.105214 7.98793 -0.131463 7.46143 0.397287L0.714428 7.14429C0.469928 7.38804 0.318428 7.71204 0.286928 8.05479L0.00267787 11.1823C-0.0168221 11.4035 0.0619279 11.6225 0.219428 11.78C0.361178 11.9218 0.552428 11.9998 0.749678 11.9998C0.772928 11.9998 0.795428 11.999 0.817928 11.9968L3.94543 11.7125C4.28893 11.681 4.61218 11.5303 4.85593 11.2865L11.6037 4.53879C12.1497 3.99129 12.1264 3.07779 11.5527 2.50329Z" fill="#24292C"/>
</svg>
