<svg width="10" height="10" viewBox="0 0 10 10" fill="none" xmlns="http://www.w3.org/2000/svg">
<path fill-rule="evenodd" clip-rule="evenodd" d="M5.78545 5.2143L9.0737 1.91789C9.37319 1.61766 9.37319 1.13237 9.0737 0.832138C8.77421 0.531906 8.29013 0.531906 7.99064 0.832138L4.70238 4.12855L1.41413 0.832138C1.11464 0.531906 0.630552 0.531906 0.331062 0.832138C0.031573 1.13237 0.031573 1.61766 0.331062 1.91789L3.61932 5.2143L0.331062 8.51071C0.031573 8.81094 0.031573 9.29623 0.331062 9.59646C0.480424 9.74619 0.676509 9.82144 0.872594 9.82144C1.06868 9.82144 1.26476 9.74619 1.41413 9.59646L4.70238 6.30005L7.99064 9.59646C8.14 9.74619 8.33608 9.82144 8.53217 9.82144C8.72825 9.82144 8.92434 9.74619 9.0737 9.59646C9.37319 9.29623 9.37319 8.81094 9.0737 8.51071L5.78545 5.2143Z" fill="#EB5757"/>
</svg>
