<svg width="50px" height="50px" viewBox="0 0 50 50" fill="none" xmlns="http://www.w3.org/2000/svg">
<rect width="50" height="50" rx="25" fill="#3A3AF4"/>
<path d="M17 33.75V18H21.5V24.75H28.25V18H32.75V33.75H28.25V27H21.5V33.75H17Z" fill="white"/>
</svg>


